EntOffender,FirstName
EntOffender,LastName
EntOffender,MiddleName
EntOffender,ContactInfo
EntOffender,OfficerName
EntOffender,RefID
EntOffender,SocialSecurity
EntContactInfo,Addresses
EntContactInfo,Contact
EntContactInfo,LandLine
EntOffenderAddress,CityName
EntOffenderAddress,StateName
EntOffenderAddress,Street
EntOffenderAddress,Phones
EntOffenderAddress,ZipCode
EntPhone,PhoneNumber
EntPhone,PrefixPhone
EntLandlineData,Phone
EntLandlineData,PrefixPhone
EntLandlineData,DialOutPrefix
EntOffenderContact,FirstName
EntOffenderContact,LastName
EntOffenderContact,MiddleName 
EntOffenderContact,Phone
EntOffenderContact,PrefixPhone
EntDeletedOffenderData,RefID
EntOffenderPicture,Picture
EntAuthorizedMobile,CellularNumber
EntCellularData,DataPhoneNumber 
EntCellularData,DataPrefixPhone
EntCellularData,VoicePhoneNumber
EntCellularData,VoicePrefixPhone
EntEvent,Message
