2019 11 02 13:44:37.4034 
2019 11 02 13:44:37.4254 attenti Electronic Monitoring XT_Simulator Version 12.0.16.0 (Build 7/18/2018 7:14:54 PM) Started
2019 11 02 13:53:39.3987 1 active devices loaded from DB
2019 11 02 13:53:39.4107 Simulation start requested
2019 11 02 13:53:39.4227 Simulation started
2019 11 02 13:53:43.5727 [34200503] Offender  sending 4  points and 2  events (HW 2 geo 0) to CommBox(10.10.8.12:8006)
2019 11 02 13:53:43.6006 [34200050] Offender  sending 4  points and 2  events (HW 2 geo 0) to CommBox(10.10.8.12:8006)
2019 11 02 13:54:10.9812 [34200050] Offender  sending 4  points and 2  events (HW 2 geo 0) to CommBox(10.10.8.12:8006)
2019 11 02 13:54:12.3966 [34200503] Offender  sending 4  points and 2  events (HW 2 geo 0) to CommBox(10.10.8.12:8006)
2019 11 02 13:54:41.3244 [34200050] Offender  sending 4  points and 2  events (HW 2 geo 0) to CommBox(10.10.8.12:8006)
2019 11 02 13:54:42.8016 [34200503] Offender  sending 4  points and 2  events (HW 2 geo 0) to CommBox(10.10.8.12:8006)
2019 11 02 13:55:10.7021 [34200050] DoComm error: Cannot access a disposed object.
Object name: 'System.Net.Sockets.NetworkStream'.
2019 11 02 13:55:13.2576 [34200503] Offender  sending 4  points and 2  events (HW 2 geo 0) to CommBox(10.10.8.12:8006)
2019 11 02 13:55:40.4894 [34200050] DoComm error: Object reference not set to an instance of an object.
2019 11 02 13:55:42.5241 [34200050] Offender  sending 4  points and 2  events (HW 2 geo 0) to CommBox(10.10.8.12:8006)
2019 11 02 13:55:43.5114 [34200503] Offender  sending 4  points and 2  events (HW 2 geo 0) to CommBox(10.10.8.12:8006)
2019 11 02 13:55:43.5427 [34200050] DoComm error: Cannot access a disposed object.
Object name: 'System.Net.Sockets.NetworkStream'.
2019 11 02 13:56:12.9027 [34200050] DoComm error: No connection could be made because the target machine actively refused it 10.10.8.12:8006
2019 11 02 13:56:12.9127 [34200050] DoComm error: No connection could be made because the target machine actively refused it 10.10.8.12:8006
2019 11 02 13:56:13.3758 [34200503] DoComm error: No connection could be made because the target machine actively refused it 10.10.8.12:8006
2019 11 02 13:56:15.4413 [34200050] DoComm error: No connection could be made because the target machine actively refused it 10.10.8.12:8006
2019 11 02 13:56:46.2430 [34200503] Offender  sending 4  points and 2  events (HW 2 geo 0) to CommBox(10.10.8.12:8006)
2019 11 02 13:57:13.5428 [34200050] DoComm error: Object reference not set to an instance of an object.
2019 11 02 13:57:14.5785 [34200050] DoComm error: Object reference not set to an instance of an object.
2019 11 02 13:57:16.6987 [34200503] Offender  sending 4  points and 2  events (HW 2 geo 0) to CommBox(10.10.8.12:8006)
2019 11 02 13:57:17.1537 [34200050] Offender  sending 4  points and 2  events (HW 2 geo 0) to CommBox(10.10.8.12:8006)
2019 11 02 13:57:43.5978 Simulation stop requested
2019 11 02 13:57:43.6068 Simulation ended.
2019 11 02 13:57:49.6957 attenti Electronic Monitoring XT_Simulator Version 12.0.16.0 (Build 7/18/2018 7:14:54 PM) Stopped
2019 11 02 13:57:59.1142 
2019 11 02 13:57:59.1202 attenti Electronic Monitoring XT_Simulator Version 12.0.16.0 (Build 7/18/2018 7:14:54 PM) Started
2019 11 02 13:58:31.3256 1 active devices loaded from DB
2019 11 02 13:58:31.3396 Simulation start requested
2019 11 02 13:58:31.3521 Simulation started
2019 11 02 13:58:35.0326 [34200050] Offender  sending 4  points and 2  events (HW 2 geo 0) to CommBox(10.10.8.12:8006)
2019 11 02 14:02:04.1265 Simulation stop requested
2019 11 02 14:02:04.1405 Simulation ended.
2019 11 02 14:03:21.9693 attenti Electronic Monitoring XT_Simulator Version 12.0.16.0 (Build 7/18/2018 7:14:54 PM) Stopped
2019 11 02 14:51:15.0856 
2019 11 02 14:51:15.0936 attenti Electronic Monitoring XT_Simulator Version 12.0.16.0 (Build 7/18/2018 7:14:54 PM) Started
2019 11 02 14:51:17.4319 This application need to run as administrator
To set it up, right click on XT Simulator executable, select "Properties" and then select the "Compatibility" tab.
Check "Run this program as administrator" check box
2019 11 02 14:51:17.7359 attenti Electronic Monitoring XT_Simulator Version 12.0.16.0 (Build 7/18/2018 7:14:54 PM) Stopped
2019 11 02 14:51:23.4756 
2019 11 02 14:51:23.4826 attenti Electronic Monitoring XT_Simulator Version 12.0.16.0 (Build 7/18/2018 7:14:54 PM) Started
2019 11 02 14:51:29.8081 1 active devices loaded from DB
2019 11 02 14:51:29.8220 Simulation start requested
2019 11 02 14:51:29.8361 Simulation started
2019 11 02 14:51:33.5265 [34262876] Offender  sending 4  points and 2  events (HW 2 geo 0) to CommBox(10.10.8.12:8006)
2019 11 02 14:51:34.0747 [34262834] Offender  sending 4  points and 2  events (HW 2 geo 0) to CommBox(10.10.8.12:8006)
2019 11 02 14:52:02.8864 [34262876] Offender  sending 4  points and 2  events (HW 2 geo 0) to CommBox(10.10.8.12:8006)
2019 11 02 14:52:09.0705 [35657093] Offender  sending 4  points and 2  events (HW 2 geo 0) to CommBox(10.10.8.12:8006)
2019 11 02 14:52:30.2305 [34262834] DoComm error: Unable to read data from the transport connection: A blocking operation was interrupted by a call to WSACancelBlockingCall.
2019 11 02 14:52:33.2381 [34262876] Offender  sending 4  points and 2  events (HW 2 geo 0) to CommBox(10.10.8.12:8006)
2019 11 02 14:52:36.4360 [35657093] Offender  sending 4  points and 2  events (HW 2 geo 0) to CommBox(10.10.8.12:8006)
2019 11 02 14:53:00.4636 [34262834] DoComm error: Object reference not set to an instance of an object.
2019 11 02 14:53:01.6794 [35657093] Offender  sending 4  points and 2  events (HW 2 geo 0) to CommBox(10.10.8.12:8006)
2019 11 02 14:53:03.6817 [34262876] Offender  sending 4  points and 2  events (HW 2 geo 0) to CommBox(10.10.8.12:8006)
2019 11 02 14:53:06.4953 Simulation stop requested
2019 11 02 14:53:06.5073 Simulation ended.
2019 11 02 14:53:06.5163 [34262834] DoComm error: Unable to read data from the transport connection: A blocking operation was interrupted by a call to WSACancelBlockingCall.
2019 11 02 14:53:07.7755 1 active devices loaded from DB
2019 11 02 14:53:07.7955 Simulation start requested
2019 11 02 14:53:07.8082 Simulation started
2019 11 02 14:53:11.4109 [34262834] Offender  sending 4  points and 2  events (HW 2 geo 0) to CommBox(10.10.8.12:8006)
2019 11 02 14:53:42.4453 attenti Electronic Monitoring XT_Simulator Version 12.0.16.0 (Build 7/18/2018 7:14:54 PM) Stopped
